\relax 
\providecommand\hyper@newdestlabel[2]{}
\providecommand\zref@newlabel[2]{}
\providecommand\HyperFirstAtBeginDocument{\AtBeginDocument}
\HyperFirstAtBeginDocument{\ifx\hyper@anchor\@undefined
\global\let\oldcontentsline\contentsline
\gdef\contentsline#1#2#3#4{\oldcontentsline{#1}{#2}{#3}}
\global\let\oldnewlabel\newlabel
\gdef\newlabel#1#2{\newlabelxx{#1}#2}
\gdef\newlabelxx#1#2#3#4#5#6{\oldnewlabel{#1}{{#2}{#3}}}
\AtEndDocument{\ifx\hyper@anchor\@undefined
\let\contentsline\oldcontentsline
\let\newlabel\oldnewlabel
\fi}
\fi}
\global\let\hyper@last\relax 
\gdef\HyperFirstAtBeginDocument#1{#1}
\providecommand\HyField@AuxAddToFields[1]{}
\providecommand\HyField@AuxAddToCoFields[2]{}
\@writefile{toc}{\beamer@endinputifotherversion {3.24pt}}
\@writefile{nav}{\beamer@endinputifotherversion {3.24pt}}
\@writefile{nav}{\headcommand {\slideentry {0}{0}{1}{1/1}{}{0}}}
\@writefile{nav}{\headcommand {\beamer@framepages {1}{1}}}
\pgfsyspdfmark {pgfid2}{-372931}{11846757}
\@writefile{nav}{\headcommand {\slideentry {0}{0}{2}{2/2}{}{0}}}
\@writefile{nav}{\headcommand {\beamer@framepages {2}{2}}}
\@writefile{nav}{\headcommand {\slideentry {0}{0}{3}{3/3}{}{0}}}
\@writefile{nav}{\headcommand {\beamer@framepages {3}{3}}}
\pgfsyspdfmark {pgfid3}{-2237610}{206765}
\@writefile{nav}{\headcommand {\slideentry {0}{0}{4}{4/4}{}{0}}}
\@writefile{nav}{\headcommand {\beamer@framepages {4}{4}}}
\pgfsyspdfmark {pgfid4}{-2237610}{206765}
\@writefile{nav}{\headcommand {\slideentry {0}{0}{5}{5/5}{}{0}}}
\@writefile{nav}{\headcommand {\beamer@framepages {5}{5}}}
\pgfsyspdfmark {pgfid7}{-2237610}{206765}
\citation{Ta04}
\bibcite{Ta04}{\hyperlink {beamerbibTa04}{Taylor 2004}}
\@writefile{nav}{\headcommand {\slideentry {0}{0}{6}{6/6}{}{0}}}
\@writefile{nav}{\headcommand {\beamer@framepages {6}{6}}}
\pgfsyspdfmark {pgfid10}{-2237610}{206765}
\bibcite{COMMA-WIAS}{\hyperlink {beamerbibCOMMA-WIAS}{Porrini et al. 2014}}
\pgfsyspdfmark {pgfid15}{-2237610}{206765}
\pgfsyspdfmark {pgfid20}{-2237610}{206765}
\@writefile{nav}{\headcommand {\slideentry {0}{0}{7}{7/9}{}{0}}}
\@writefile{nav}{\headcommand {\beamer@framepages {7}{9}}}
\pgfsyspdfmark {pgfid25}{-2237610}{206765}
\pgfsyspdfmark {pgfid28}{-2237610}{206765}
\@writefile{nav}{\headcommand {\slideentry {0}{0}{8}{10/11}{}{0}}}
\@writefile{nav}{\headcommand {\beamer@framepages {10}{11}}}
\pgfsyspdfmark {pgfid31}{-2237610}{206765}
\pgfsyspdfmark {pgfid32}{-2237610}{206765}
\pgfsyspdfmark {pgfid33}{-2237610}{206765}
\@writefile{nav}{\headcommand {\slideentry {0}{0}{9}{12/14}{}{0}}}
\@writefile{nav}{\headcommand {\beamer@framepages {12}{14}}}
\pgfsyspdfmark {pgfid34}{-2237610}{206765}
\pgfsyspdfmark {pgfid38}{-2237610}{206765}
\pgfsyspdfmark {pgfid42}{-2237610}{206765}
\@writefile{nav}{\headcommand {\slideentry {0}{0}{10}{15/17}{}{0}}}
\@writefile{nav}{\headcommand {\beamer@framepages {15}{17}}}
\pgfsyspdfmark {pgfid46}{-2237610}{206765}
\pgfsyspdfmark {pgfid47}{-2237610}{206765}
\pgfsyspdfmark {pgfid48}{-2237610}{206765}
\pgfsyspdfmark {pgfid49}{-2237610}{206765}
\@writefile{nav}{\headcommand {\slideentry {0}{0}{11}{18/21}{}{0}}}
\@writefile{nav}{\headcommand {\beamer@framepages {18}{21}}}
\pgfsyspdfmark {pgfid50}{-2237610}{206765}
\bibcite{CAISE}{\hyperlink {beamerbibCAISE}{Porrini et al. 2014}}
\pgfsyspdfmark {pgfid52}{-2237610}{206765}
\pgfsyspdfmark {pgfid54}{-2237610}{206765}
\@writefile{nav}{\headcommand {\slideentry {0}{0}{12}{22/24}{}{0}}}
\@writefile{nav}{\headcommand {\beamer@framepages {22}{24}}}
\pgfsyspdfmark {pgfid56}{-2237610}{206765}
\pgfsyspdfmark {pgfid61}{-2237610}{206765}
\pgfsyspdfmark {pgfid65}{-2237610}{206765}
\pgfsyspdfmark {pgfid69}{-2237610}{206765}
\pgfsyspdfmark {pgfid73}{-2237610}{206765}
\@writefile{nav}{\headcommand {\slideentry {0}{0}{13}{25/29}{}{0}}}
\@writefile{nav}{\headcommand {\beamer@framepages {25}{29}}}
\pgfsyspdfmark {pgfid77}{-2237610}{206765}
\citation{LC98}
\citation{Wu94}
\@writefile{nav}{\headcommand {\slideentry {0}{0}{14}{30/30}{}{0}}}
\@writefile{nav}{\headcommand {\beamer@framepages {30}{30}}}
\pgfsyspdfmark {pgfid78}{-2237610}{206765}
\citation{Do11}
\citation{Ko13}
\citation{Ca09}
\citation{Li10}
\citation{Ve11}
\pgfsyspdfmark {pgfid79}{-2237610}{206765}
\citation{Do11}
\citation{Ko13}
\citation{Ca09}
\citation{Li10}
\citation{Ve11}
\pgfsyspdfmark {pgfid80}{-2237610}{206765}
\citation{Do11}
\citation{Ko13}
\citation{Ca09}
\citation{Li10}
\citation{Ve11}
\pgfsyspdfmark {pgfid81}{-2237610}{206765}
\citation{Do11}
\citation{Ko13}
\citation{Ca09}
\citation{Li10}
\citation{Ve11}
\pgfsyspdfmark {pgfid82}{-2237610}{206765}
\citation{Do11}
\citation{Ko13}
\citation{Ca09}
\citation{Li10}
\citation{Ve11}
\pgfsyspdfmark {pgfid83}{-2237610}{206765}
\citation{Do11}
\citation{Ko13}
\citation{Ca09}
\citation{Li10}
\citation{Ve11}
\@writefile{nav}{\headcommand {\slideentry {0}{0}{15}{31/36}{}{0}}}
\@writefile{nav}{\headcommand {\beamer@framepages {31}{36}}}
\pgfsyspdfmark {pgfid84}{-2237610}{206765}
\pgfsyspdfmark {pgfid88}{-2237610}{206765}
\pgfsyspdfmark {pgfid92}{-2237610}{206765}
\pgfsyspdfmark {pgfid96}{-2237610}{206765}
\@writefile{nav}{\headcommand {\slideentry {0}{0}{16}{37/40}{}{0}}}
\@writefile{nav}{\headcommand {\beamer@framepages {37}{40}}}
\pgfsyspdfmark {pgfid100}{-2237610}{206765}
\pgfsyspdfmark {pgfid101}{-2237610}{206765}
\@writefile{nav}{\headcommand {\slideentry {0}{0}{17}{41/42}{}{0}}}
\@writefile{nav}{\headcommand {\beamer@framepages {41}{42}}}
\pgfsyspdfmark {pgfid102}{-2237610}{206765}
\pgfsyspdfmark {pgfid103}{-2237610}{206765}
\pgfsyspdfmark {pgfid104}{-2237610}{206765}
\@writefile{nav}{\headcommand {\slideentry {0}{0}{18}{43/45}{}{0}}}
\@writefile{nav}{\headcommand {\beamer@framepages {43}{45}}}
\pgfsyspdfmark {pgfid105}{-2237610}{206765}
\citation{Ch14}
\pgfsyspdfmark {pgfid106}{-2237610}{206765}
\citation{Ch14}
\@writefile{nav}{\headcommand {\slideentry {0}{0}{19}{46/47}{}{0}}}
\@writefile{nav}{\headcommand {\beamer@framepages {46}{47}}}
\pgfsyspdfmark {pgfid107}{-2237610}{206765}
\pgfsyspdfmark {pgfid108}{-2237610}{206765}
\@writefile{nav}{\headcommand {\slideentry {0}{0}{20}{48/49}{}{0}}}
\@writefile{nav}{\headcommand {\beamer@framepages {48}{49}}}
\pgfsyspdfmark {pgfid109}{-2237610}{206765}
\pgfsyspdfmark {pgfid110}{10815150}{10722899}
\@writefile{nav}{\headcommand {\slideentry {0}{0}{21}{50/50}{}{0}}}
\@writefile{nav}{\headcommand {\beamer@framepages {50}{50}}}
\pgfsyspdfmark {pgfid111}{-2237610}{206765}
\bibcite{Ta04}{\hyperlink {beamerbibTa04}{Taylor 2004}}
\bibcite{COMMA-WIAS}{\hyperlink {beamerbibCOMMA-WIAS}{Porrini et al. 2014}}
\bibcite{CAISE}{\hyperlink {beamerbibCAISE}{Porrini et al. 2014}}
\bibcite{Wu94}{\hyperlink {beamerbibWu94}{Wu and Palmer 1994}}
\bibcite{LC98}{\hyperlink {beamerbibLC98}{Leacock and Chodorow 1998}}
\bibcite{Do11}{\hyperlink {beamerbibDo11}{Dou et al. 2011}}
\bibcite{Ko13}{\hyperlink {beamerbibKo13}{Kong and Allan 2013}}
\bibcite{Ca09}{\hyperlink {beamerbibCa09}{Carmel et al. 2009}}
\bibcite{Li10}{\hyperlink {beamerbibLi10}{Limaye et al. 2010}}
\bibcite{Ve11}{\hyperlink {beamerbibVe11}{Venetis et al. 2011}}
\bibcite{Ch14}{\hyperlink {beamerbibCh14}{Cheatham and Hitzler 2014}}
\@writefile{nav}{\headcommand {\slideentry {0}{0}{22}{51/51}{}{0}}}
\@writefile{nav}{\headcommand {\beamer@framepages {51}{51}}}
\pgfsyspdfmark {pgfid112}{-2237610}{206765}
\pgfsyspdfmark {pgfid113}{10815150}{9786678}
\@writefile{nav}{\headcommand {\slideentry {0}{0}{23}{52/52}{}{0}}}
\@writefile{nav}{\headcommand {\beamer@framepages {52}{52}}}
\pgfsyspdfmark {pgfid114}{-2237610}{206765}
\citation{St07}
\citation{Da08}
\citation{We13}
\citation{Me13}
\citation{Li09}
\citation{Pa09}
\citation{Po11}
\citation{Ya10}
\citation{Do11}
\citation{Ka12}
\citation{Ko13}
\citation{LC98}
\citation{Wu94}
\@writefile{nav}{\headcommand {\slideentry {0}{0}{24}{53/53}{}{0}}}
\@writefile{nav}{\headcommand {\beamer@framepages {53}{53}}}
\pgfsyspdfmark {pgfid115}{-2237610}{206765}
\bibcite{St07}{\hyperlink {beamerbibSt07}{Stoica et al. 2007}}
\bibcite{Da08}{\hyperlink {beamerbibDa08}{Dakka and Ipeirotis 2008}}
\bibcite{We13}{\hyperlink {beamerbibWe13}{Wei et al. 2013}}
\bibcite{Me13}{\hyperlink {beamerbibMe13}{Medelyan et al. 2013}}
\bibcite{Li09}{\hyperlink {beamerbibLi09}{Li et al. 2009}}
\bibcite{Pa09}{\hyperlink {beamerbibPa09}{Pasca and Alfonseca 2009}}
\bibcite{Po11}{\hyperlink {beamerbibPo11}{Pound et al. 2011}}
\bibcite{Ka12}{\hyperlink {beamerbibKa12}{Kawano et al. 2012}}
\bibcite{Ya10}{\hyperlink {beamerbibYa10}{Yan et al. 2010}}
\@writefile{nav}{\headcommand {\slideentry {0}{0}{25}{54/54}{}{0}}}
\@writefile{nav}{\headcommand {\beamer@framepages {54}{54}}}
\pgfsyspdfmark {pgfid116}{-2237610}{206765}
\@writefile{nav}{\headcommand {\slideentry {0}{0}{26}{55/55}{}{0}}}
\@writefile{nav}{\headcommand {\beamer@framepages {55}{55}}}
\pgfsyspdfmark {pgfid117}{-2237610}{206765}
\pgfsyspdfmark {pgfid119}{-2237610}{206765}
\pgfsyspdfmark {pgfid121}{-2237610}{206765}
\pgfsyspdfmark {pgfid123}{-2237610}{206765}
\@writefile{nav}{\headcommand {\slideentry {0}{0}{27}{56/59}{}{0}}}
\@writefile{nav}{\headcommand {\beamer@framepages {56}{59}}}
\pgfsyspdfmark {pgfid125}{-2237610}{206765}
\pgfsyspdfmark {pgfid128}{-2237610}{206765}
\pgfsyspdfmark {pgfid131}{-2237610}{206765}
\pgfsyspdfmark {pgfid134}{-2237610}{206765}
\@writefile{nav}{\headcommand {\slideentry {0}{0}{28}{60/63}{}{0}}}
\@writefile{nav}{\headcommand {\beamer@framepages {60}{63}}}
\pgfsyspdfmark {pgfid137}{-2237610}{206765}
\citation{Ve11}
\@writefile{nav}{\headcommand {\slideentry {0}{0}{29}{64/64}{}{0}}}
\@writefile{nav}{\headcommand {\beamer@framepages {64}{64}}}
\pgfsyspdfmark {pgfid138}{-2237610}{206765}
\@writefile{nav}{\headcommand {\beamer@partpages {1}{64}}}
\@writefile{nav}{\headcommand {\beamer@subsectionpages {1}{64}}}
\@writefile{nav}{\headcommand {\beamer@sectionpages {1}{64}}}
\@writefile{nav}{\headcommand {\beamer@documentpages {64}}}
\@writefile{nav}{\headcommand {\def \inserttotalframenumber {29}}}
